^C:\USERS\TOM\SOURCE\REPOS\PROJECTSPARALLEL\PROJECT1\MAIN.C
/c /ZI /JMC /nologo /W3 /WX- /diagnostics:column /sdl /Od /Oy- /D _DEBUG /D _CONSOLE /D _UNICODE /D UNICODE /Gm- /EHsc /RTC1 /MDd /GS /fp:precise /permissive- /Zc:wchar_t /Zc:forScope /Zc:inline /Fo"DEBUG\\" /Fd"DEBUG\VC142.PDB" /Gd /TC /analyze- /FC C:\USERS\TOM\SOURCE\REPOS\PROJECTSPARALLEL\PROJECT1\MAIN.C
^C:\USERS\TOM\SOURCE\REPOS\LEARNING_C\PROJECTSPARALLEL\PROJECT1\MAIN.C
/c /ZI /JMC /nologo /W3 /WX- /diagnostics:column /sdl /Od /Oy- /D _DEBUG /D _CONSOLE /D _UNICODE /D UNICODE /Gm- /EHsc /RTC1 /MDd /GS /fp:precise /permissive- /Zc:wchar_t /Zc:forScope /Zc:inline /Fo"DEBUG\\" /Fd"DEBUG\VC142.PDB" /Gd /TC /analyze- /FC C:\USERS\TOM\SOURCE\REPOS\LEARNING_C\PROJECTSPARALLEL\PROJECT1\MAIN.C
