^C:\USERS\TOM\SOURCE\REPOS\PROJECTSPARALLEL\PROJECT_2_2\DEBUG\MAIN.OBJ
/OUT:"C:\USERS\TOM\SOURCE\REPOS\PROJECTSPARALLEL\DEBUG\PROJECT_2_2.EXE" /INCREMENTAL /NOLOGO KERNEL32.LIB USER32.LIB GDI32.LIB WINSPOOL.LIB COMDLG32.LIB ADVAPI32.LIB SHELL32.LIB OLE32.LIB OLEAUT32.LIB UUID.LIB ODBC32.LIB ODBCCP32.LIB /MANIFEST /MANIFESTUAC:"level='asInvoker' uiAccess='false'" /manifest:embed /DEBUG:FASTLINK /PDB:"C:\USERS\TOM\SOURCE\REPOS\PROJECTSPARALLEL\DEBUG\PROJECT_2_2.PDB" /SUBSYSTEM:CONSOLE /TLBID:1 /DYNAMICBASE /NXCOMPAT /IMPLIB:"C:\USERS\TOM\SOURCE\REPOS\PROJECTSPARALLEL\DEBUG\PROJECT_2_2.LIB" /MACHINE:X86 DEBUG\MAIN.OBJ
^C:\USERS\TOM\SOURCE\REPOS\LEARNING_C\PROJECTSPARALLEL\PROJECT_2_2\DEBUG\MAIN.OBJ
/OUT:"C:\USERS\TOM\SOURCE\REPOS\LEARNING_C\PROJECTSPARALLEL\DEBUG\PROJECT_2_2.EXE" /INCREMENTAL /NOLOGO KERNEL32.LIB USER32.LIB GDI32.LIB WINSPOOL.LIB COMDLG32.LIB ADVAPI32.LIB SHELL32.LIB OLE32.LIB OLEAUT32.LIB UUID.LIB ODBC32.LIB ODBCCP32.LIB /MANIFEST /MANIFESTUAC:"level='asInvoker' uiAccess='false'" /manifest:embed /DEBUG:FASTLINK /PDB:"C:\USERS\TOM\SOURCE\REPOS\LEARNING_C\PROJECTSPARALLEL\DEBUG\PROJECT_2_2.PDB" /SUBSYSTEM:CONSOLE /TLBID:1 /DYNAMICBASE /NXCOMPAT /IMPLIB:"C:\USERS\TOM\SOURCE\REPOS\LEARNING_C\PROJECTSPARALLEL\DEBUG\PROJECT_2_2.LIB" /MACHINE:X86 DEBUG\MAIN.OBJ
