^C:\USERS\TOM\SOURCE\REPOS\PROJECTSPARALLEL\PROJECT_0_2\DEBUG\MAIN.OBJ
C:\USERS\TOM\SOURCE\REPOS\PROJECTSPARALLEL\DEBUG\PROJECT_0_2.EXE
C:\USERS\TOM\SOURCE\REPOS\PROJECTSPARALLEL\DEBUG\PROJECT_0_2.ILK
C:\USERS\TOM\SOURCE\REPOS\PROJECTSPARALLEL\DEBUG\PROJECT_0_2.PDB
