^C:\USERS\TOM\SOURCE\REPOS\PROJECTSPARALLEL\PROJECT4\MAIN.C
C:\USERS\TOM\SOURCE\REPOS\PROJECTSPARALLEL\PROJECT4\DEBUG\VC142.PDB
C:\USERS\TOM\SOURCE\REPOS\PROJECTSPARALLEL\PROJECT4\DEBUG\VC142.IDB
C:\USERS\TOM\SOURCE\REPOS\PROJECTSPARALLEL\PROJECT4\DEBUG\MAIN.OBJ
^C:\USERS\TOM\SOURCE\REPOS\LEARNING_C\PROJECTSPARALLEL\PROJECT4\MAIN.C
C:\USERS\TOM\SOURCE\REPOS\LEARNING_C\PROJECTSPARALLEL\PROJECT4\DEBUG\VC142.PDB
C:\USERS\TOM\SOURCE\REPOS\LEARNING_C\PROJECTSPARALLEL\PROJECT4\DEBUG\VC142.IDB
C:\USERS\TOM\SOURCE\REPOS\LEARNING_C\PROJECTSPARALLEL\PROJECT4\DEBUG\MAIN.OBJ
